{
    "KPackageStructure": "KPackage/GenericQML",
    "KPlugin": {
        "Authors": [
            {
                "Email": "devin@kde.org",
                "Name": "Devin Lin",
                "Name[ar]": "ديفين لين",
                "Name[az]": "Devin Lin",
                "Name[ca@valencia]": "Devin Lin",
                "Name[ca]": "Devin Lin",
                "Name[cs]": "Devin Lin",
                "Name[de]": "Devin Lin",
                "Name[en_GB]": "Devin Lin",
                "Name[eo]": "Devin Lin",
                "Name[es]": "Devin Lin",
                "Name[eu]": "Devin Lin",
                "Name[fi]": "Devin Lin",
                "Name[fr]": "Devin Lin",
                "Name[ia]": "Devin Lin",
                "Name[is]": "Devin Lin",
                "Name[it]": "Devin Lin",
                "Name[ka]": "Devin Lin",
                "Name[ko]": "Devin Lin",
                "Name[nl]": "Devin Lin",
                "Name[nn]": "Devin Lin",
                "Name[pa]": "ਡੇਵਿਨ ਲਿਨ",
                "Name[pl]": "Devin Lin",
                "Name[pt]": "Devin Lin",
                "Name[pt_BR]": "Devin Lin",
                "Name[ru]": "Devin Lin",
                "Name[sk]": "Devin Lin",
                "Name[sl]": "Devin Lin",
                "Name[sv]": "Devin Lin",
                "Name[tr]": "Devin Lin",
                "Name[uk]": "Devin Lin",
                "Name[x-test]": "xxDevin Linxx",
                "Name[zh_CN]": "Devin Lin"
            }
        ],
        "Description": "Quick setting to suspend system sleep for Plasma Mobile",
        "Description[ca@valencia]": "Configuració ràpida per a suspendre el repòs del sistema per a Plasma Mobile",
        "Description[ca]": "Configuració ràpida per a suspendre el repòs del sistema per al Plasma Mobile",
        "Description[en_GB]": "Quick setting to suspend system sleep for Plasma Mobile",
        "Description[eo]": "Rapida agordo por suspendi sisteman dormon por Plasma Mobile",
        "Description[es]": "Ajuste rápido para suspender el reposo del sistema para Plasma Mobile",
        "Description[eu]": "Sistemaren loa geldiarazteko ezarpen azkarra Plasma Mugikorrerako",
        "Description[fi]": "Pika-asetus lepotilan estämiseksi Plasma Mobileen",
        "Description[fr]": "Configuration rapide pour annuler la veille du système pour Plasma Mobile",
        "Description[ia]": "Preferentia rapide a suspender dormi per Plasma Mobile",
        "Description[it]": "Impostazione rapida per impedire la sospensione del sistema per Plasma Mobile",
        "Description[ka]": "სისტემის ძილის შეწყვეტის სწრაფი მორგების პარამეტრი Plasma Mobile-სთვის",
        "Description[ko]": "Plasma 모바일의 시스템 절전 방지 빠른 설정",
        "Description[nl]": "Snelle instelling systeemslaap te onderbreken voor Plasma Mobile",
        "Description[nn]": "Snøgginnstilling for å hinda systemet å gå i kvilemodus for Plasma Mobile",
        "Description[pa]": "ਪਲਾਜ਼ਮਾ ਮੋਬਾਈਲ ਲਈ ਸਿਸਟਮ ਸਸਪੈਡਂ ਕਰਨ ਲਈ ਫ਼ੌਰੀ ਸੈਟਿੰਗ",
        "Description[pl]": "Szybkie usypiania systemu w Przenośnej Plazmie",
        "Description[pt]": "Configuração rápida para interromper a suspensão do sistema do Plasma Mobile",
        "Description[ru]": "Быстрая настройка приостановки системного сна для Plasma Mobile",
        "Description[sk]": "Rýchle nastavenie pozastavenia spánku systému pre Plasma Mobile",
        "Description[sl]": "Hitre nastavitve za preprečevanje sistemskega dremeža za Plasma Mobile",
        "Description[tr]": "Plasma Cep sistem uykusunu askıya alma tez ayarı",
        "Description[uk]": "Швидке налаштовування призупинення роботи системи для Мобільної Плазми",
        "Description[x-test]": "xxQuick setting to suspend system sleep for Plasma Mobilexx",
        "Description[zh_CN]": "Plasma Mobile 的暂停息屏快捷设置",
        "Icon": "system-suspend-hibernate",
        "Id": "org.kde.plasma.quicksetting.caffeine",
        "License": "GPL",
        "Name": "Caffeine",
        "Name[ar]": "كافيين",
        "Name[az]": "Caffeine",
        "Name[ca@valencia]": "Caffeine",
        "Name[ca]": "Caffeine",
        "Name[cs]": "Caffeine",
        "Name[en_GB]": "Caffeine",
        "Name[eo]": "Kafeino",
        "Name[es]": "Cafeína",
        "Name[eu]": "Kafeina",
        "Name[fi]": "Caffeine",
        "Name[fr]": "Caffeine",
        "Name[hi]": "कैफीन",
        "Name[hu]": "Caffeine",
        "Name[ia]": "Caffeine",
        "Name[is]": "Caffeine",
        "Name[it]": "Caffeina",
        "Name[ka]": "კაფეინი",
        "Name[ko]": "카페인",
        "Name[nl]": "Cafeïne",
        "Name[nn]": "Caffeine",
        "Name[pa]": "ਕੈਫ਼਼ੀਨ",
        "Name[pl]": "Kofeina",
        "Name[pt]": "Cafeína",
        "Name[pt_BR]": "Cafeína",
        "Name[ro]": "Cafeină",
        "Name[ru]": "Кофеин",
        "Name[sk]": "Kofeín",
        "Name[sl]": "Caffeine",
        "Name[sv]": "Koffein",
        "Name[tr]": "Caffeine",
        "Name[uk]": "Кофеїн",
        "Name[x-test]": "xxCaffeinexx",
        "Name[zh_CN]": "保持亮屏",
        "Version": "0.1",
        "Website": "https://kde.org"
    }
}
