{
    "KPackageStructure": "KPackage/GenericQML",
    "KPlugin": {
        "Authors": [
            {
                "Email": "devin@kde.org",
                "Name": "Devin Lin",
                "Name[ar]": "ديفين لين",
                "Name[az]": "Devin Lin",
                "Name[ca@valencia]": "Devin Lin",
                "Name[ca]": "Devin Lin",
                "Name[cs]": "Devin Lin",
                "Name[de]": "Devin Lin",
                "Name[en_GB]": "Devin Lin",
                "Name[eo]": "Devin Lin",
                "Name[es]": "Devin Lin",
                "Name[eu]": "Devin Lin",
                "Name[fi]": "Devin Lin",
                "Name[fr]": "Devin Lin",
                "Name[ia]": "Devin Lin",
                "Name[is]": "Devin Lin",
                "Name[it]": "Devin Lin",
                "Name[ka]": "Devin Lin",
                "Name[ko]": "Devin Lin",
                "Name[nl]": "Devin Lin",
                "Name[nn]": "Devin Lin",
                "Name[pa]": "ਡੇਵਿਨ ਲਿਨ",
                "Name[pl]": "Devin Lin",
                "Name[pt]": "Devin Lin",
                "Name[pt_BR]": "Devin Lin",
                "Name[ru]": "Devin Lin",
                "Name[sk]": "Devin Lin",
                "Name[sl]": "Devin Lin",
                "Name[sv]": "Devin Lin",
                "Name[tr]": "Devin Lin",
                "Name[uk]": "Devin Lin",
                "Name[x-test]": "xxDevin Linxx",
                "Name[zh_CN]": "Devin Lin"
            }
        ],
        "Description": "Quick setting for keyboard toggle for Plasma Mobile",
        "Description[ca@valencia]": "Configuració ràpida del canvi de teclat per a Plasma Mobile",
        "Description[ca]": "Configuració ràpida del canvi de teclat per al Plasma Mobile",
        "Description[en_GB]": "Quick setting for keyboard toggle for Plasma Mobile",
        "Description[eo]": "Rapida agordo por klavara baskulo por Plasma Mobile",
        "Description[es]": "Ajuste rápido para conmutar el teclado para Plasma Mobile",
        "Description[eu]": "Teklatua txandakatzeko ezarpen azkarra Plasma Mugikorrerako",
        "Description[fi]": "Näppäimistön näyttämisen pika-asetus Plasma Mobileen",
        "Description[fr]": "Configuration rapide pour le basculement de clavier pour Plasma Mobile",
        "Description[ia]": "Preferentia rapide commutar claviero per Plasma Mobile",
        "Description[it]": "Impostazione rapida per commutare la tastiera per Plasma Mobile",
        "Description[ka]": "პარამეტრების აპლიკაციის სწრაფი მორგების პარამეტრი Plasma Mobile-სთვის",
        "Description[ko]": "Plasma 모바일의 가상 키보드 전환 빠른 설정",
        "Description[nl]": "Snelle instelling voor omschakelen van toetsenbord voor Plasma Mobile",
        "Description[nn]": "Snøgginnstilling for virtuelt tastatur for Plasma Mobile",
        "Description[pa]": "ਪਲਾਜ਼ਮਾ ਮੋਬਾਈਲ ਲਈ ਕੀਬੋਰਡ ਬਦਲਣ ਢੰਗ ਲਈ ਫ਼ੌਰੀ ਸੈਟਿੰਗ",
        "Description[pl]": "Szybkie przełączanie klawiatury w Przenośnej Plazmie",
        "Description[pt]": "Configuração rápida da comutação do teclado do Plasma Mobile",
        "Description[ru]": "Быстрое включение или отключение виртуальной клавиатуры для Plasma Mobile",
        "Description[sk]": "Rýchle nastavenie prepínania klávesnice pre Plasma Mobile",
        "Description[sl]": "Hitre nastavitve za preklop tipkovnice za Plasma Mobile",
        "Description[tr]": "Plasma Cep klavye aç/kapat tez ayarı",
        "Description[uk]": "Швидке налаштовування перемикання розкладки клавіатури для Мобільної Плазми",
        "Description[x-test]": "xxQuick setting for keyboard toggle for Plasma Mobilexx",
        "Description[zh_CN]": "Plasma Mobile 的虚拟键盘快捷设置",
        "Icon": "input-keyboard-virtual",
        "Id": "org.kde.plasma.quicksetting.keyboardtoggle",
        "License": "GPL",
        "Name": "Virtual Keyboard Toggle",
        "Name[az]": "Virtual klaviatura keçidi",
        "Name[ca@valencia]": "Commutació del teclat virtual",
        "Name[ca]": "Commutació del teclat virtual",
        "Name[cs]": "Přepínání virtuální klávesnice",
        "Name[en_GB]": "Virtual Keyboard Toggle",
        "Name[eo]": "Virtuala Klavaro Ŝaltilo",
        "Name[es]": "Conmutación del teclado virtual",
        "Name[eu]": "Alegiazko teklatua txandakatzea",
        "Name[fi]": "Näytä tai piilota näyttönäppäimistö",
        "Name[fr]": "Basculement vers /hors clavier virtuel",
        "Name[hu]": "Virtuális billentyűzet kapcsoló",
        "Name[ia]": "Commuta Claviero Virtual",
        "Name[is]": "Víxla sýndarlyklaborði af/á",
        "Name[it]": "Attiva/disattiva la tastiera virtuale",
        "Name[ka]": "ვირტუალური კლავიატურის გადართვა",
        "Name[ko]": "가상 키보드 전환",
        "Name[nl]": "Omschakeling van virtueel toetsenbord",
        "Name[nn]": "Virtuelt tastatur",
        "Name[pa]": "ਫ਼ਰਜ਼ੀ ਕੀਬੋਰਡ ਬਦਲੋ",
        "Name[pl]": "Przełącznik klawiatury ekranowej",
        "Name[pt]": "Comutar o Teclado Virtual",
        "Name[pt_BR]": "Alternar teclado virtual",
        "Name[ru]": "Включение и отключение виртуальной клавиатуры",
        "Name[sk]": "Prepínanie virtuálnej klávesnice",
        "Name[sl]": "Preklop navidezne tipkovnice",
        "Name[sv]": "Visa eller dölj virtuellt tangentbord",
        "Name[ta]": "மெய்நிகர் விசைப்பலகை நிலைமாற்றி",
        "Name[tr]": "Sanal Klavye Aç/Kapat",
        "Name[uk]": "Перемикання віртуальної клавіатури",
        "Name[x-test]": "xxVirtual Keyboard Togglexx",
        "Name[zh_CN]": "虚拟键盘开关",
        "Version": "0.1",
        "Website": "https://kde.org"
    }
}
