{
    "KPackageStructure": "KPackage/GenericQML",
    "KPlugin": {
        "Authors": [
            {
                "Email": "devin@kde.org",
                "Name": "Devin Lin",
                "Name[ar]": "ديفين لين",
                "Name[az]": "Devin Lin",
                "Name[ca@valencia]": "Devin Lin",
                "Name[ca]": "Devin Lin",
                "Name[cs]": "Devin Lin",
                "Name[de]": "Devin Lin",
                "Name[en_GB]": "Devin Lin",
                "Name[eo]": "Devin Lin",
                "Name[es]": "Devin Lin",
                "Name[eu]": "Devin Lin",
                "Name[fi]": "Devin Lin",
                "Name[fr]": "Devin Lin",
                "Name[ia]": "Devin Lin",
                "Name[is]": "Devin Lin",
                "Name[it]": "Devin Lin",
                "Name[ka]": "Devin Lin",
                "Name[ko]": "Devin Lin",
                "Name[nl]": "Devin Lin",
                "Name[nn]": "Devin Lin",
                "Name[pa]": "ਡੇਵਿਨ ਲਿਨ",
                "Name[pl]": "Devin Lin",
                "Name[pt]": "Devin Lin",
                "Name[pt_BR]": "Devin Lin",
                "Name[ru]": "Devin Lin",
                "Name[sk]": "Devin Lin",
                "Name[sl]": "Devin Lin",
                "Name[sv]": "Devin Lin",
                "Name[tr]": "Devin Lin",
                "Name[uk]": "Devin Lin",
                "Name[x-test]": "xxDevin Linxx",
                "Name[zh_CN]": "Devin Lin"
            }
        ],
        "Description": "Screen rotation quick setting for Plasma Mobile",
        "Description[ca@valencia]": "Configuració ràpida del gir de pantalla per a Plasma Mobile",
        "Description[ca]": "Configuració ràpida del gir de pantalla per al Plasma Mobile",
        "Description[en_GB]": "Screen rotation quick setting for Plasma Mobile",
        "Description[eo]": "Ekranrotacio rapida agordo por Plasma Mobile",
        "Description[es]": "Ajuste rápido de rotación de la pantalla para Plasma Mobile",
        "Description[eu]": "Pantaila biratzearen ezarpen azkarra Plasma Mugikorrerako",
        "Description[fi]": "Näytön kierron pika-asetus Plasma Mobileen",
        "Description[fr]": "Configuration rapide pour la rotation d'écran pour Plasma Mobile",
        "Description[ia]": "Preferentia rapide de rotation de schermo per Plasma Mobile",
        "Description[it]": "Impostazione rapida della rotazione dello schermo per Plasma Mobile",
        "Description[ka]": "ეკრანის ტრიალის სწრაფი მორგების პარამეტრი Plasma Mobile-სთვის",
        "Description[ko]": "Plasma 모바일의 화면 회전 빠른 설정",
        "Description[nl]": "Snelle instelling van schermrotatie voor Plasma Mobile",
        "Description[nn]": "Snøgginnstilling for skjermrotering for Plasma Mobile",
        "Description[pa]": "ਪਲਾਜ਼ਮਾ ਮੋਬਾਈਲ ਲਈ ਸਕਰੀਨ ਘੁੰਮਾਉਣ ਲਈ ਫ਼ੌਰੀ ਸੈਟਿੰਗ",
        "Description[pl]": "Szybkie obracanie ekranu w Przenośnej Plazmie",
        "Description[pt]": "Configuração rápida da rotação do ecrã do Plasma Mobile",
        "Description[pt_BR]": "Configurações rápidas de rotação da tela para o Plasma Mobile",
        "Description[ru]": "Быстрая настройка поворота экрана для Plasma Mobile",
        "Description[sk]": "Rýchle nastavenia Otočenia obrazovky pre Plasma Mobile",
        "Description[sl]": "Hitre nastavitve sukanja zaslona za Plasma Mobile",
        "Description[tr]": "Plasma Cep ekran döndürme tez ayarı",
        "Description[uk]": "Швидке встановлення обертання екрана для Мобільної Плазми",
        "Description[x-test]": "xxScreen rotation quick setting for Plasma Mobilexx",
        "Description[zh_CN]": "Plasma Mobile 的屏幕旋转快捷设置",
        "Icon": "rotation-allowed",
        "Id": "org.kde.plasma.quicksetting.screenrotation",
        "License": "GPL-2.0+",
        "Name": "Screen rotation",
        "Name[az]": "Ekran dönməsi",
        "Name[ca@valencia]": "Gir de la pantalla",
        "Name[ca]": "Gir de la pantalla",
        "Name[cs]": "Otáčení obrazovky",
        "Name[de]": "Bildschirm drehen",
        "Name[en_GB]": "Screen rotation",
        "Name[eo]": "Ekran rotacio",
        "Name[es]": "Rotación de la pantalla",
        "Name[eu]": "Pantaila biratzea",
        "Name[fi]": "Näytön kierto",
        "Name[fr]": "Rotation de l'écran",
        "Name[ia]": "Rotation de schermo",
        "Name[is]": "Snúningur skjás",
        "Name[it]": "Rotazione dello schermo",
        "Name[ka]": "ეკრანის ტრიალი",
        "Name[ko]": "화면 회전",
        "Name[nl]": "Schermrotatie",
        "Name[nn]": "Skjermrotering",
        "Name[pa]": "ਸਕਰੀਨ ਘੁੰਮਾਓ",
        "Name[pl]": "Obrót ekranu",
        "Name[pt]": "Rotação do ecrã",
        "Name[pt_BR]": "Rotação da tela",
        "Name[ro]": "Rotirea ecranului",
        "Name[ru]": "Поворот экрана",
        "Name[sk]": "Otočenie obrazovky",
        "Name[sl]": "Sukanje zaslona",
        "Name[sv]": "Skärmrotation",
        "Name[ta]": "திரை சழற்சி",
        "Name[tr]": "Ekran Döndürme",
        "Name[uk]": "Реалізовано обертання зображення на екрані",
        "Name[x-test]": "xxScreen rotationxx",
        "Name[zh_CN]": "屏幕旋转",
        "Version": "0.1",
        "Website": "https://kde.org"
    }
}
