{
    "KPlugin": {
        "Authors": [
            {
                "Email": "fella@posteo.de",
                "Name": "Tobias Fella",
                "Name[ar]": "توبياس فلة",
                "Name[ca@valencia]": "Tobias Fella",
                "Name[ca]": "Tobias Fella",
                "Name[cs]": "Tobias Fella",
                "Name[en_GB]": "Tobias Fella",
                "Name[eo]": "Tobias Fella",
                "Name[es]": "Tobias Fella",
                "Name[eu]": "Tobias Fella",
                "Name[fi]": "Tobias Fella",
                "Name[fr]": "Tobias Fella",
                "Name[ia]": "Tobias Fella",
                "Name[it]": "Tobias Fella",
                "Name[ka]": "Tobias Fella",
                "Name[ko]": "Tobias Fella",
                "Name[nl]": "Tobias Fella",
                "Name[nn]": "Tobias Fella",
                "Name[pl]": "Tobias Fella",
                "Name[sk]": "Tobias Fella",
                "Name[sl]": "Tobias Fella",
                "Name[tr]": "Tobias Fella",
                "Name[uk]": "Tobias Fella",
                "Name[x-test]": "xxTobias Fellaxx",
                "Name[zh_CN]": "Tobias Fella"
            }
        ],
        "Category": "System Information",
        "Description": "Wi-Fi Hotspot",
        "Description[ca@valencia]": "Punt d'accés Wi-Fi",
        "Description[ca]": "Punt d'accés Wi-Fi",
        "Description[cs]": "Hotspot WiFi",
        "Description[en_GB]": "Wi-Fi Hotspot",
        "Description[eo]": "Wi-Fi Hotspot",
        "Description[es]": "Punto de acceso wifi",
        "Description[eu]": "Wi-Fi berogunea",
        "Description[fi]": "Langattomat tukiasemat",
        "Description[fr]": "Points d'accès Wifi",
        "Description[ia]": "Hotspots de Wi-Fi",
        "Description[it]": "Hotspot Wi-Fi",
        "Description[ka]": "Wi-Fi ჰოტსპოტი",
        "Description[ko]": "Wi-Fi 핫스팟",
        "Description[nl]": "Wi-Fi-hotspot",
        "Description[nn]": "Trådlaussone",
        "Description[pa]": "ਵਾਈ-ਫ਼ਾਈ ਹਾਟਸਪਾਟ",
        "Description[pl]": "Wi-Fi Hotspot",
        "Description[pt_BR]": "Ponto de acesso sem fio",
        "Description[sk]": "Prístupový bod Wi-Fi",
        "Description[sl]": "Wi-Fi vroča točka",
        "Description[tr]": "Wi-Fi Erişim Noktası",
        "Description[uk]": "Хот-спот Wi-Fi",
        "Description[x-test]": "xxWi-Fi Hotspotxx",
        "Description[zh_CN]": "Wi-Fi 热点",
        "EnabledByDefault": true,
        "FormFactors": [
            "handset",
            "tablet",
            "mediacenter"
        ],
        "Icon": "network-wireless-hotspot",
        "Id": "kcm_mobile_hotspot",
        "License": "GPL",
        "Name": "Hotspot",
        "Name[ar]": "هوت-سبوت",
        "Name[ca@valencia]": "Punt d'accés",
        "Name[ca]": "Punt d'accés",
        "Name[cs]": "Hotspot",
        "Name[en_GB]": "Hotspot",
        "Name[eo]": "Hotspot",
        "Name[es]": "Punto de acceso",
        "Name[eu]": "Berogunea",
        "Name[fi]": "Tukiasema",
        "Name[fr]": "Points d'accès",
        "Name[ia]": "Hotspot",
        "Name[it]": "Hotspot",
        "Name[ka]": "ჰოტსპოტი",
        "Name[ko]": "핫스팟",
        "Name[nl]": "Hotspot",
        "Name[nn]": "Trådlaussone",
        "Name[pa]": "ਹਾਟਸਪਾਟ",
        "Name[pl]": "Hotspot",
        "Name[pt_BR]": "Ponto de acesso",
        "Name[sk]": "Prístupový bod",
        "Name[sl]": "Vroča točka",
        "Name[tr]": "Erişim Noktası",
        "Name[uk]": "Точка доступу",
        "Name[x-test]": "xxHotspotxx",
        "Name[zh_CN]": "无线热点",
        "Website": "https://plasma-mobile.org/"
    },
    "X-KDE-System-Settings-Parent-Category": "network"
}
