{
    "KPlugin": {
        "Authors": [
            {
                "Name": "Bhushan Shah",
                "Name[ar]": "Bhushan Shah",
                "Name[ast]": "Bhushan Shah",
                "Name[az]": "Bhushan Shah",
                "Name[ca@valencia]": "Bhushan Shah",
                "Name[ca]": "Bhushan Shah",
                "Name[cs]": "Bhushan Shah",
                "Name[de]": "Bhushan Shah",
                "Name[en_GB]": "Bhushan Shah",
                "Name[eo]": "Bhushan Shah",
                "Name[es]": "Bhushan Shah",
                "Name[eu]": "Bhushan Shah",
                "Name[fi]": "Bhushan Shah",
                "Name[fr]": "Bhushan Shah",
                "Name[ia]": "Bhushan Shah",
                "Name[is]": "Bhushan Shah",
                "Name[it]": "Bhushan Shah",
                "Name[ka]": "Bhushan Shah",
                "Name[ko]": "Bhushan Shah",
                "Name[nl]": "Bhushan Shah",
                "Name[nn]": "Bhushan Shah",
                "Name[pa]": "ਭੂਸ਼ਨ ਸ਼ਾਹ",
                "Name[pl]": "Bhushan Shah",
                "Name[pt]": "Bhushan Shah",
                "Name[pt_BR]": "Bhushan Shah",
                "Name[ru]": "Bhushan Shah",
                "Name[sk]": "Bhushan Shah",
                "Name[sl]": "Bhushan Shah",
                "Name[sv]": "Bhushan Shah",
                "Name[tr]": "Buşan Şah",
                "Name[uk]": "Bhushan Shah",
                "Name[x-test]": "xxBhushan Shahxx",
                "Name[zh_CN]": "Bhushan Shah"
            }
        ],
        "Description": "On-Screen Keyboard configuration",
        "Description[ca@valencia]": "Configureu el teclat en pantalla",
        "Description[ca]": "Configuració del teclat en pantalla",
        "Description[cs]": "Nastavení klávesnice na obrazovce",
        "Description[en_GB]": "On-Screen Keyboard configuration",
        "Description[eo]": "Agordo sur Ekrana Klavaro",
        "Description[es]": "Configuración del teclado en pantalla",
        "Description[eu]": "Pantailako teklatua konfiguratzea",
        "Description[fi]": "Näyttönäppäimistön asetukset",
        "Description[fr]": "Configuration du clavier en incrustation vidéo",
        "Description[ia]": "Configuration de Claviero sur le schermo",
        "Description[it]": "Configurazione della tastiera su schermo",
        "Description[ka]": "კლავიატურის კრანზე მორგება",
        "Description[ko]": "가상 키보드 설정",
        "Description[nl]": "Configuratie van toetsenbord op het scherm",
        "Description[nn]": "Oppsett av skjermtastatur",
        "Description[pa]": "ਆਨ-ਸਕਰੀਨ ਕੀਬੋਰਡ ਸੰਰਚਨਾ",
        "Description[pl]": "Ustawienia klawiatury ekranowej",
        "Description[pt_BR]": "Configuração do teclado virtual",
        "Description[sk]": "Konfigurácia klávesnice na obrazovke",
        "Description[sl]": "Konfiguracija zaslonske tipkovnice",
        "Description[tr]": "Ekran Klavyesi yapılandırması",
        "Description[uk]": "Налаштування екранної клавіатури",
        "Description[x-test]": "xxOn-Screen Keyboard configurationxx",
        "Description[zh_CN]": "屏幕键盘配置",
        "FormFactors": [
            "handset",
            "tablet"
        ],
        "Icon": "input-keyboard",
        "License": "GPL",
        "Name": "On-Screen Keyboard",
        "Name[ca@valencia]": "Teclat en pantalla",
        "Name[ca]": "Teclat en pantalla",
        "Name[cs]": "Klávesnice na obrazovce",
        "Name[en_GB]": "On-Screen Keyboard",
        "Name[eo]": "Surekrana Klavaro",
        "Name[es]": "Teclado en pantalla",
        "Name[eu]": "Pantailako teklatua",
        "Name[fi]": "Näyttönäppäimistö",
        "Name[fr]": "Clavier en incrustation vidéo",
        "Name[ia]": "Claviero sur schermo",
        "Name[it]": "Tastiera su schermo",
        "Name[ka]": "ეკრანის კლავიატურა",
        "Name[ko]": "가상 키보드",
        "Name[nl]": "Toetsenbord op scherm",
        "Name[nn]": "Skjermtastatur",
        "Name[pa]": "ਆਨ-ਸਕਰੀਨ ਕੀਬੋਰਡ",
        "Name[pl]": "Klawiatura ekranowa",
        "Name[pt_BR]": "Teclado virtual",
        "Name[sk]": "Klávesnica na obrazovke",
        "Name[sl]": "Zaslonska tipkovnica",
        "Name[tr]": "Ekran Klavyesi",
        "Name[uk]": "Екранна клавіатура",
        "Name[x-test]": "xxOn-Screen Keyboardxx",
        "Name[zh_CN]": "屏幕键盘",
        "Version": "1.0",
        "Website": "https://plasma-mobile.org"
    },
    "X-KDE-Keywords": "onscreen,osk,virtualkeyboard,keyboard",
    "X-KDE-Keywords[az]": "virtualkeyboard,keyboard,virtual klaviatura",
    "X-KDE-Keywords[ca@valencia]": "teclat virtual,teclat",
    "X-KDE-Keywords[ca]": "teclat virtual,teclat",
    "X-KDE-Keywords[cs]": "virtuální klávesnice, klávesnice",
    "X-KDE-Keywords[de]": "Virtuelle Tastatur,Tastatur",
    "X-KDE-Keywords[en_GB]": "virtualkeyboard,keyboard",
    "X-KDE-Keywords[es]": "tecladovirtual,teclado",
    "X-KDE-Keywords[eu]": "alegiazko teklatua,teklatua",
    "X-KDE-Keywords[fi]": "näyttönäppäimistö,virtuaalinäppäimistö,näppäimistö",
    "X-KDE-Keywords[fr]": "clavier virtuel, clavier",
    "X-KDE-Keywords[hu]": "virtuális billentyűzet,billentyűzet",
    "X-KDE-Keywords[ia]": "virtualkeyboard,keyboard",
    "X-KDE-Keywords[it]": "tastieravirtuale,tastiera",
    "X-KDE-Keywords[ko]": "virtualkeyboard,keyboard,키보드,가상 키보드",
    "X-KDE-Keywords[lt]": "virtualiklaviatūra,virtualiklaviatura,virtuali klaviatūra,virtuali klaviatura,klaviatūra,klaviatura",
    "X-KDE-Keywords[nl]": "virtueeltoetsenbord,toetsenbord",
    "X-KDE-Keywords[nn]": "virtuelt tastatur,tastatur",
    "X-KDE-Keywords[pa]": "ਫ਼ਰਜ਼ੀ ਕੀਬੋਰਡ,ਵਰਚੁਅਲ ਕੀਬੋਰਡ,ਖਾਕਾ,ਕੀਬੋਰਡ",
    "X-KDE-Keywords[pl]": "klawiatura ekranowa,klawiatura",
    "X-KDE-Keywords[pt]": "teclado virtual,teclado",
    "X-KDE-Keywords[pt_BR]": "teclado virtual,teclado",
    "X-KDE-Keywords[ro]": "tastatură virtuală,tastatură",
    "X-KDE-Keywords[ru]": "virtualkeyboard,keyboard,клавиатура,виртуальная клавиатура",
    "X-KDE-Keywords[sk]": "virtuálna klávesnica, klávesnica",
    "X-KDE-Keywords[sl]": "navidezna tipkovnica,tipkovnica",
    "X-KDE-Keywords[sv]": "virtuellt tangentbord,tangentbord",
    "X-KDE-Keywords[ta]": "virtualkeyboard, keyboard, மெய்நிகர் விசைப்பலகை, விசைப்பலகை, திரையில் விசைப்பலகை, திரை விசைப்பலகை, திரைவிசைப்பலகை",
    "X-KDE-Keywords[uk]": "virtualkeyboard,keyboard,екранна,віртуальна,клавіатура,клавіші",
    "X-KDE-Keywords[vi]": "virtualkeyboard,keyboard,bàn phím ảo,bàn phím",
    "X-KDE-Keywords[x-test]": "xxvirtualkeyboardxx,xxkeyboardxx",
    "X-KDE-Keywords[zh_CN]": "virtualkeyboard,keyboard,虚拟键盘,键盘",
    "X-KDE-System-Settings-Parent-Category": "input-devices"
}
